{
	"discord_link": "https://discord.gg/DYDC8F6",
	"support_link": "https://vk.me/vilonity_com",
	"website_url": "https://vilonity.com",

	"legacy_upd_header": "Теперь у нас есть личный кабинет!",
	"legacy_upd_header2": "Вы уверены?",
	"legacy_upd_text": "Вы только что обновились на новую версию программы, теперь\nвместо ключей у вас будет личный кабинет, нажмите \"Продолжить\",\nдля того чтобы зарегистрироваться на нашем сайте.\n\nМы обнаружили у вас ключ от программы с макросами,\nоставшееся на нем время будет добавлено на ваш аккаунт.\n",
	"legacy_upd_text2": "После нажатия \"Закрыть\", программа закроется.\nЧтобы продолжить пользоваться программой нужно\nзарегистрироваться на сайте, нажмите \"Продолжить\"\n",

	"login_or_email": "Логин или почта",
	"login_empty": "Введите логин или пароль",
	"login_email_is_not_valid": "Невалидная почта",
	"login_is_too_short": "Ваш логин слишком короткий",

	"password": "Пароль",
	"password_is_empty": "Введите пароль",
	"password_is_too_short": "Ваш пароль должен быть хотя бы 8 символов в длину",

	"forgot_password": "Забыли пароль?",
	"sign_in_browser": "Войти через браузер",
	"sign_in_browser_cancel": "Отменить вход через браузер",
	"sign_in": "Войти",

	"outdated_version": "Устаревшая версия лаунчера",
	"user_not_found": "Аккаунт не найден",
	"user_banned": "Аккаунт находится в бане",
	"wrong_password": "Неверный пароль",
	"server_error": "Ошибка на стороне сервера: %d",

	"rollback_key": "Вы уже использовали %s ключ, поэтому он был отменен.",
	"rollback_key_def_group": "тестовый",
	"rollback_key_buy": "Вы можете приобрести подписку на нашем официальном сайте.",
	"rollback_key_canceled": "Отменено: ",
	"rollback_key_key": "Ключ: ",
	
	"choose_game": "Выберите игру:",

	"sub_status": "СТАТУС ПОДПИСКИ",
	"sub_status_none": "Закончилась",
	"sub_status_active": "Активна",
	"sub_status_frozen": "Заморожена",
	"sub_status_lifetime": "Навсегда",

	"sub_time": "ОСТАВШЕЕСЯ ВРЕМЯ",

	"time_sec1": "секунда",
	"time_sec2": "секунды",
	"time_sec3": "секунд",

	"time_min1": "минута",
	"time_min2": "минуты",
	"time_min3": "минут",

	"time_hour1": "час",
	"time_hour2": "часа",
	"time_hour3": "часов",

	"time_days1": "день",
	"time_days2": "дня",
	"time_days3": "дней",

	"time_month1": "месяц",
	"time_month2": "месяца",
	"time_month3": "месяцев",

	"time_years1": "год",
	"time_years2": "года",
	"time_years3": "лет",

	"contact_support": "Обратиться в поддержку",
	"buy_subscription": "Продление подписки",

	"launch_status_start": "Запустить",
	"launch_status_loading": "Загрузка",
	"launch_status_loading2": "Загрузка#2",
	"launch_status_starting": "Запуск",
	"launch_status_starting2": "Запуск#2",
	"launch_status_waiting": "Ожидание",

	"launch_error_header": "Ошибка при запуске",
	"launch_error_closed": "Процесс закрылся. Код %d.\nУбедитесь что антивирус отключен.",
	"launch_error_admin": "Недостаточно привелегий.\nПерезапустите лоадер от имени администратора.",
	"launch_error_create": "Не удалось запустить процесс. Ошибка: %d.\nУбедитесь что антивирус отключен.",
	"launch_error_timeout": "Процесс не смог запустится за %d секунд.\nПопробуйте еще раз.",
	"launch_error_update": "Не удалось записать программу на диск.\nУбедитесь что макросы не запущены.\nУбедитесь что антивирус отключен.",

	"or_": "или",
	"press": "Нажмите",
	"to_assign": "чтобы\nприсвоить",
	"to_reset": "чтобы\nсбросить",

	"close": "Закрыть",
	"cancel": "Отмена",
	"continue_": "Продолжить"
}